T0007.CSV

Model,DPO2002B
Firmware Version,1.52

Point Format,Y,,,
Horizontal Units,S,,,
Horizontal Scale,0.01,,,
Sample Interval,8e-07,,,
Filter Frequency,7e+07,,,
Record Length,125000,,,
Gating,0.0% to 100.0%,,0.0% to 100.0%,
Probe Attenuation,10,,10,
Vertical Units,V,,V,
Vertical Offset,0,,0,
Vertical Scale,10,,50,
Label,,,,
TIME,CH1,CH1 Peak Detect,CH2,CH2 Peak Detect
-3.78000e-02,25.6,25.6,0.999999,5
-3.77992e-02,25.2,24.8,0.999999,0.999999
-3.77984e-02,25.2,25.6,0.999999,5
-3.77976e-02,25.6,24.8,3,0.999999
-3.77968e-02,25.6,25.6,0.999999,5
-3.77960e-02,25.6,25.2,0.999999,0.999999
-3.77952e-02,25.6,25.6,0.999999,5
-3.77944e-02,25.6,25.2,0.999999,0.999999
-3.77936e-02,25.2,25.6,0.999999,5
-3.77928e-02,25.2,24.8,0.999999,0.999999
-3.77920e-02,25.6,26,0.999999,5
-3.77912e-02,25.2,24.8,3,0.999999
-3.77904e-02,25.6,25.6,3,5
-3.77896e-02,25.2,24.8,0.999999,0.999999
-3.77888e-02,25.6,25.6,0.999999,5
-3.77880e-02,25.6,24.4,3,0.999999
-3.77872e-02,25.2,26,0.999999,5
-3.77864e-02,25.6,24.8,0.999999,0.999999
-3.77856e-02,25.2,25.6,3,5
-3.77848e-02,25.2,24.8,0.999999,0.999999
-3.77840e-02,25.6,25.6,0.999999,5
-3.77832e-02,25.6,24.8,0.999999,0.999999
-3.77824e-02,25.2,25.6,0.999999,5
-3.77816e-02,25.6,24.8,3,0.999999
-3.77808e-02,25.2,25.6,3,5
-3.77800e-02,25.2,24.8,0.999999,0.999999
-3.77792e-02,25.2,25.6,0.999999,5
-3.77784e-02,25.6,24.8,0.999999,0.999999
-3.77776e-02,25.2,25.6,0.999999,5
-3.77768e-02,25.6,24.8,0.999999,0.999999
-3.77760e-02,25.6,25.6,3,5
-3.77752e-02,25.2,25.2,0.999999,0.999999
-3.77744e-02,25.6,26,0.999999,5
-3.77736e-02,25.2,24.8,0.999999,0.999999
-3.77728e-02,25.2,26,0.999999,5
-3.77720e-02,25.2,24.8,0.999999,0.999999
-3.77712e-02,25.2,25.6,3,5
-3.77704e-02,25.6,24.4,3,0.999999
-3.77696e-02,25.6,26,0.999999,5
-3.77688e-02,25.6,24.8,0.999999,0.999999
-3.77680e-02,25.6,26,0.999999,5
-3.77672e-02,25.6,24.8,3,0.999999
-3.77664e-02,25.6,26,0.999999,5
-3.77656e-02,25.6,24.8,0.999999,0.999999
-3.77648e-02,25.6,26,3,5
-3.77640e-02,25.6,24.4,0.999999,0.999999
-3.77632e-02,25.6,26,0.999999,5
-3.77624e-02,25.2,24.4,3,0.999999
-3.77616e-02,25.6,26,3,5
-3.77608e-02,25.6,24.8,0.999999,0.999999
-3.77600e-02,25.6,26,3,5
-3.77592e-02,25.6,24.4,3,0.999999
-3.77584e-02,25.6,26,0.999999,5
-3.77576e-02,25.6,25.2,0.999999,0.999999
-3.77568e-02,25.6,25.6,0.999999,5
-3.77560e-02,25.6,25.2,0.999999,0.999999
-3.77552e-02,25.6,26,0.999999,5
-3.77544e-02,25.6,24.8,0.999999,0.999999
-3.77536e-02,25.6,26,3,5
-3.77528e-02,25.6,24.8,0.999999,0.999999
-3.77520e-02,25.6,25.6,3,5
-3.77512e-02,26,24.8,0.999999,0.999999
-3.77504e-02,25.6,25.6,3,5
-3.77496e-02,25.6,25.2,0.999999,0.999999
-3.77488e-02,25.6,26,0.999999,5
-3.77480e-02,25.6,25.2,0.999999,0.999999
-3.77472e-02,25.6,26,3,5
-3.77464e-02,25.6,25.2,0.999999,0.999999
-3.77456e-02,25.6,26,3,5
-3.77448e-02,25.6,25.2,3,0.999999
-3.77440e-02,25.6,25.6,0.999999,5
-3.77432e-02,25.6,25.2,0.999999,0.999999
-3.77424e-02,25.6,25.6,3,5
-3.77416e-02,25.2,25.2,0.999999,0.999999
-3.77408e-02,25.2,26,0.999999,5
-3.77400e-02,25.6,25.2,0.999999,0.999999
-3.77392e-02,25.6,26,0.999999,5
-3.77384e-02,25.6,24.8,3,0.999999
-3.77376e-02,25.6,26,0.999999,5
-3.77368e-02,25.2,25.2,3,0.999999
-3.77360e-02,25.6,26,0.999999,5
-3.77352e-02,25.6,24.8,0.999999,0.999999
-3.77344e-02,25.2,26,3,5
-3.77336e-02,25.6,25.2,0.999999,0.999999
-3.77328e-02,25.6,25.6,3,5
-3.77320e-02,25.6,25.2,3,0.999999
-3.77312e-02,25.6,26,3,5
-3.77304e-02,25.6,25.2,0.999999,0.999999
-3.77296e-02,25.6,26,3,5
-3.77288e-02,25.6,25.2,0.999999,0.999999
-3.77280e-02,25.2,26,0.999999,5
-3.77272e-02,25.6,24.8,3,0.999999
-3.77264e-02,25.6,26,0.999999,5
-3.77256e-02,25.6,25.2,3,0.999999
-3.77248e-02,25.6,25.6,0.999999,5
-3.77240e-02,25.6,25.2,0.999999,0.999999
-3.77232e-02,25.2,26,0.999999,5
-3.77224e-02,25.6,24.8,0.999999,0.999999
-3.77216e-02,25.6,26,3,5
-3.77208e-02,25.6,25.2,0.999999,0.999999
-3.77200e-02,25.6,26,0.999999,5
-3.77192e-02,25.6,25.2,3,0.999999
-3.77184e-02,25.6,26,0.999999,5
-3.77176e-02,25.6,25.2,3,0.999999
-3.77168e-02,25.6,26,0.999999,5
-3.77160e-02,25.6,25.2,0.999999,0.999999
-3.77152e-02,25.6,26,3,5
-3.77144e-02,25.6,25.2,0.999999,0.999999
-3.77136e-02,25.6,26,3,5
-3.77128e-02,25.6,24.8,0.999999,0.999999
-3.77120e-02,25.6,26,3,5
-3.77112e-02,25.6,25.2,0.999999,0.999999
-3.77104e-02,25.6,26,3,5
-3.77096e-02,25.6,25.2,0.999999,0.999999
-3.77088e-02,25.6,26,0.999999,5
-3.77080e-02,25.6,25.2,0.999999,0.999999
-3.77072e-02,25.6,26,3,5
-3.77064e-02,25.6,24.8,0.999999,0.999999
-3.77056e-02,25.6,26,0.999999,5
-3.77048e-02,25.6,24.8,3,0.999999
-3.77040e-02,25.6,26,0.999999,5
-3.77032e-02,25.2,25.2,0.999999,0.999999
-3.77024e-02,25.6,26,3,5
-3.77016e-02,25.6,24.8,0.999999,0.999999
-3.77008e-02,25.6,26,0.999999,5
-3.77000e-02,25.6,24.8,0.999999,0.999999
-3.76992e-02,25.6,26,3,5
-3.76984e-02,25.6,24.8,3,0.999999
-3.76976e-02,25.6,26.4,3,5
-3.76968e-02,25.6,24.8,3,0.999999
-3.76960e-02,25.6,26.4,0.999999,5
-3.76952e-02,25.6,24.8,0.999999,0.999999
-3.76944e-02,25.6,26.4,0.999999,5
-3.76936e-02,25.6,24.8,3,0.999999
-3.76928e-02,25.6,26.4,3,5
-3.76920e-02,25.6,24.8,0.999999,0.999999
-3.76912e-02,25.6,26.4,3,5
-3.76904e-02,25.2,24.8,0.999999,0.999999
-3.76896e-02,25.6,26.4,0.999999,5
-3.76888e-02,25.6,24.8,3,0.999999
-3.76880e-02,25.2,26,0.999999,5
-3.76872e-02,25.6,24.8,3,0.999999
-3.76864e-02,25.6,26,3,5
-3.76856e-02,25.6,25.2,0.999999,0.999999
-3.76848e-02,25.6,26,3,5
-3.76840e-02,26,25.2,3,0.999999
-3.76832e-02,25.6,26,3,5
-3.76824e-02,25.6,25.2,0.999999,0.999999
-3.76816e-02,25.6,26,0.999999,5
-3.76808e-02,25.6,25.2,0.999999,0.999999
-3.76800e-02,25.6,26,0.999999,5
-3.76792e-02,25.6,25.2,3,0.999999
-3.76784e-02,25.6,26,0.999999,5
-3.76776e-02,25.6,25.2,3,0.999999
-3.76768e-02,25.6,26,3,5
-3.76760e-02,25.6,25.2,3,0.999999
-3.76752e-02,25.6,26,0.999999,5
-3.76744e-02,25.6,25.2,0.999999,0.999999
-3.76736e-02,26,26,3,5
-3.76728e-02,25.6,24.8,0.999999,0.999999
-3.76720e-02,25.6,26.4,3,5
-3.76712e-02,25.6,25.2,0.999999,0.999999
-3.76704e-02,25.6,26,3,5
-3.76696e-02,26,25.2,3,0.999999
-3.76688e-02,25.6,26,0.999999,5
-3.76680e-02,25.6,25.2,3,0.999999
-3.76672e-02,25.6,26,3,5
-3.76664e-02,25.6,25.2,3,0.999999
-3.76656e-02,25.6,26,3,5
-3.76648e-02,25.6,25.2,3,0.999999
-3.76640e-02,25.6,26,0.999999,5
-3.76632e-02,25.6,25.2,3,0.999999
-3.76624e-02,25.6,26,3,5
-3.76616e-02,25.6,25.2,3,0.999999
-3.76608e-02,25.6,26,3,5
-3.76600e-02,25.6,25.2,3,0.999999
-3.76592e-02,25.6,26,0.999999,5
-3.76584e-02,25.6,25.2,3,0.999999
-3.76576e-02,25.6,26,3,5
-3.76568e-02,25.6,25.2,3,0.999999
-3.76560e-02,25.6,26,3,5
-3.76552e-02,26,25.2,3,0.999999
-3.76544e-02,25.6,26.4,3,5
-3.76536e-02,25.6,25.2,3,0.999999
-3.76528e-02,25.6,26,3,5
-3.76520e-02,25.6,25.2,3,0.999999
-3.76512e-02,25.6,26,3,5
-3.76504e-02,26,25.2,3,0.999999
-3.76496e-02,25.6,26,3,5
-3.76488e-02,25.6,25.2,3,0.999999
-3.76480e-02,25.6,26,3,5
-3.76472e-02,25.6,25.2,0.999999,0.999999
-3.76464e-02,26,26,3,5
-3.76456e-02,25.6,25.2,0.999999,0.999999
-3.76448e-02,26,26,3,5
-3.76440e-02,25.6,25.2,3,0.999999
-3.76432e-02,25.6,26,3,5
-3.76424e-02,25.6,25.2,3,0.999999
-3.76416e-02,25.6,26,3,5
-3.76408e-02,25.6,25.2,3,0.999999
-3.76400e-02,25.6,26,0.999999,5
-3.76392e-02,25.6,24.8,3,0.999999
-3.76384e-02,25.6,26,3,5
-3.76376e-02,25.6,25.2,3,0.999999
-3.76368e-02,26,26,3,5
-3.76360e-02,26,25.2,3,0.999999
-3.76352e-02,26,26,3,5
-3.76344e-02,25.6,25.2,0.999999,0.999999
-3.76336e-02,25.6,26,3,5
-3.76328e-02,25.6,25.2,3,0.999999
-3.76320e-02,25.6,26,0.999999,5
-3.76312e-02,25.6,25.2,3,0.999999
-3.76304e-02,25.6,26,3,5
-3.76296e-02,25.6,24.8,0.999999,0.999999
-3.76288e-02,25.6,26.4,0.999999,5
-3.76280e-02,25.6,25.2,3,0.999999
-3.76272e-02,26,26,3,5
-3.76264e-02,25.6,25.2,3,0.999999
-3.76256e-02,26,26.4,0.999999,5
-3.76248e-02,26,25.2,3,0.999999
-3.76240e-02,25.6,26.4,3,5
-3.76232e-02,25.6,25.2,3,0.999999
-3.76224e-02,25.6,26.4,3,5
-3.76216e-02,25.2,24.8,3,0.999999
-3.76208e-02,26,26,3,5
-3.76200e-02,25.6,24.8,0.999999,0.999999
-3.76192e-02,25.6,26,0.999999,5
-3.76184e-02,25.6,24.8,3,0.999999
-3.76176e-02,26,26.4,3,5
-3.76168e-02,26,24.8,3,0.999999
-3.76160e-02,26,26.4,3,5
-3.76152e-02,25.6,25.2,3,0.999999
-3.76144e-02,25.6,26,3,5
-3.76136e-02,25.6,25.2,0.999999,0.999999
-3.76128e-02,26,26,3,5
-3.76120e-02,26,25.2,3,0.999999
-3.76112e-02,25.6,26,3,5
-3.76104e-02,25.6,25.2,0.999999,0.999999
-3.76096e-02,25.6,26,3,5
-3.76088e-02,25.6,25.2,3,0.999999
-3.76080e-02,25.6,26,3,5
-3.76072e-02,25.6,25.2,0.999999,0.999999
-3.76064e-02,26,26.4,3,5
-3.76056e-02,26,25.2,3,0.999999
-3.76048e-02,26,26.4,3,5
-3.76040e-02,26,25.6,3,0.999999
-3.76032e-02,25.6,26,3,5
-3.76024e-02,25.6,25.6,3,0.999999
-3.76016e-02,25.6,26,3,5
-3.76008e-02,25.6,25.2,3,0.999999
-3.76000e-02,26,26,3,5
-3.75992e-02,25.6,25.2,3,0.999999
-3.75984e-02,25.6,26,3,5
-3.75976e-02,26,25.2,3,0.999999
-3.75968e-02,25.6,26,3,5
-3.75960e-02,26,25.2,3,0.999999
-3.75952e-02,25.6,26,3,5
-3.75944e-02,26,25.6,3,0.999999
-3.75936e-02,26,26,3,5
-3.75928e-02,25.6,25.2,0.999999,0.999999
-3.75920e-02,25.6,26,3,5
-3.75912e-02,26,25.2,3,0.999999
-3.75904e-02,26,26,0.999999,5
-3.75896e-02,25.6,24.8,3,0.999999
-3.75888e-02,26,26.4,3,5
-3.75880e-02,26,25.2,3,0.999999
-3.75872e-02,26,26,3,5
-3.75864e-02,26,25.6,3,0.999999
-3.75856e-02,26,26,3,5
-3.75848e-02,26,25.6,3,0.999999
-3.75840e-02,25.6,26,3,5
-3.75832e-02,25.6,25.2,3,0.999999
-3.75824e-02,25.6,26,3,5
-3.75816e-02,26,25.2,3,0.999999
-3.75808e-02,26,26,3,5
-3.75800e-02,26,25.2,3,0.999999
-3.75792e-02,26,26,3,5
-3.75784e-02,26,25.6,3,0.999999
-3.75776e-02,26,26,3,5
-3.75768e-02,26,25.6,3,0.999999
-3.75760e-02,25.6,26.4,3,5
-3.75752e-02,26,25.6,3,0.999999
-3.75744e-02,26,26.4,3,5
-3.75736e-02,25.6,25.2,3,0.999999
-3.75728e-02,26,26.4,3,5
-3.75720e-02,26,25.2,3,0.999999
-3.75712e-02,26,26,3,5
-3.75704e-02,26,25.6,3,0.999999
-3.75696e-02,26,26,3,5
-3.75688e-02,26,25.6,3,0.999999
-3.75680e-02,26,26,3,5
-3.75672e-02,26,25.2,3,0.999999
-3.75664e-02,26,26,3,5
-3.75656e-02,26,25.6,3,0.999999
-3.75648e-02,26,26.4,3,5
-3.75640e-02,26,25.6,3,0.999999
-3.75632e-02,26,26,3,5
-3.75624e-02,26,25.2,3,3
-3.75616e-02,26,26,3,5
-3.75608e-02,26,25.2,3,0.999999
-3.75600e-02,26,26,3,5
-3.75592e-02,26,25.6,3,0.999999
-3.75584e-02,26,26.4,3,5
-3.75576e-02,26,24.8,3,0.999999
-3.75568e-02,26,26.8,3,5
-3.75560e-02,26,25.2,3,0.999999
-3.75552e-02,26.4,26,3,5
-3.75544e-02,26,25.2,3,0.999999
-3.75536e-02,26,26.4,3,5
-3.75528e-02,26,25.2,3,0.999999
-3.75520e-02,26,26.4,3,5
-3.75512e-02,26,25.2,3,0.999999
-3.75504e-02,26,26.8,3,5
-3.75496e-02,26,25.2,3,0.999999
-3.75488e-02,26,26.4,3,5
-3.75480e-02,26,25.2,3,0.999999
-3.75472e-02,26,26.4,3,5
-3.75464e-02,26,25.2,3,0.999999
-3.75456e-02,26,26.4,3,5
-3.75448e-02,26,25.2,3,0.999999
-3.75440e-02,26,26.8,3,5
-3.75432e-02,26,25.2,3,0.999999
-3.75424e-02,25.6,26.4,3,5
-3.75416e-02,26,25.6,3,0.999999
-3.75408e-02,26,26,3,5
-3.75400e-02,26,25.2,3,0.999999
-3.75392e-02,26,26.4,3,5
-3.75384e-02,26,25.6,3,0.999999
-3.75376e-02,26,26,3,5
-3.75368e-02,26,25.6,3,0.999999
-3.75360e-02,26,26,3,5
-3.75352e-02,26,25.6,3,0.999999
-3.75344e-02,26,26,3,5
-3.75336e-02,26,25.6,3,0.999999
-3.75328e-02,26,26,3,5
-3.75320e-02,26,25.6,3,0.999999
-3.75312e-02,26,26.4,3,5
-3.75304e-02,26,25.6,3,0.999999
-3.75296e-02,26,26,3,7
-3.75288e-02,26,25.6,3,0.999999
-3.75280e-02,26,26,3,5
-3.75272e-02,26,25.6,3,0.999999
-3.75264e-02,26,26,3,5
-3.75256e-02,26,25.6,3,0.999999
-3.75248e-02,26,26,3,5
-3.75240e-02,26,25.2,3,0.999999
-3.75232e-02,26,26.4,3,5
-3.75224e-02,26,25.2,3,0.999999
-3.75216e-02,26,26,3,5
-3.75208e-02,26,25.6,3,0.999999
-3.75200e-02,26,26,3,7
-3.75192e-02,26,25.6,3,3
-3.75184e-02,26,26.4,3,7
-3.75176e-02,26,25.6,3,0.999999
-3.75168e-02,26,26.4,3,7
-3.75160e-02,26,25.6,3,0.999999
-3.75152e-02,26,26.4,3,7
-3.75144e-02,26,25.6,3,0.999999
-3.75136e-02,26,26,3,5
-3.75128e-02,25.6,25.6,3,3
-3.75120e-02,26,26,3,7
-3.75112e-02,26,25.6,3,3
-3.75104e-02,25.6,26,5,5
-3.75096e-02,26,25.6,3,3
-3.75088e-02,26,26.4,3,7
-3.75080e-02,26,25.2,3,3
-3.75072e-02,26.4,26.4,3,7
-3.75064e-02,26,25.6,3,3
-3.75056e-02,26,26.4,3,7
-3.75048e-02,26,25.6,3,0.999999
-3.75040e-02,26,26.4,3,7
-3.75032e-02,26,25.6,3,3
-3.75024e-02,26,26.4,3,7
-3.75016e-02,26,25.6,3,3
-3.75008e-02,26,26.4,3,7
-3.75000e-02,26,25.6,3,3
-3.74992e-02,26,26.4,3,7
-3.74984e-02,26,25.6,3,0.999999
-3.74976e-02,26,26.4,3,7
-3.74968e-02,26,25.6,3,3
-3.74960e-02,26,26,3,7
-3.74952e-02,26,25.6,3,0.999999
-3.74944e-02,26,26.4,3,5
-3.74936e-02,26,25.6,3,3
-3.74928e-02,25.6,26.4,3,7
-3.74920e-02,26,25.2,3,3
-3.74912e-02,26,26.8,3,5
-3.74904e-02,26,25.6,3,0.999999
-3.74896e-02,26,26.8,3,7
-3.74888e-02,26,25.6,3,3
-3.74880e-02,26,26.4,3,5
-3.74872e-02,26,25.6,3,3
-3.74864e-02,26,26.4,3,7
-3.74856e-02,26,25.2,3,3
-3.74848e-02,26,26.8,5,7
-3.74840e-02,26,25.6,3,3
-3.74832e-02,26,26.4,3,5
-3.74824e-02,26,25.2,3,3
-3.74816e-02,26,26.8,5,7
-3.74808e-02,26,25.2,3,3
-3.74800e-02,26,26.8,3,7
-3.74792e-02,26,25.2,3,3
-3.74784e-02,26,26.8,3,7
-3.74776e-02,26,25.2,3,3
-3.74768e-02,26,26.8,3,7
-3.74760e-02,26,25.2,3,3
-3.74752e-02,26,26.8,3,7
-3.74744e-02,26,25.6,3,3
-3.74736e-02,26,27.2,3,7
-3.74728e-02,26,25.2,3,3
-3.74720e-02,26,26.8,3,7
-3.74712e-02,26,25.6,3,3
-3.74704e-02,26,26.4,3,7
-3.74696e-02,26,25.6,5,3
-3.74688e-02,26,26.4,3,7
-3.74680e-02,26,25.6,3,3
-3.74672e-02,26,26.4,3,7
-3.74664e-02,26,25.6,3,3
-3.74656e-02,26,26.4,5,7
-3.74648e-02,26,25.6,3,3
-3.74640e-02,26,26.4,3,7
-3.74632e-02,26,25.6,3,3
-3.74624e-02,26,26.4,3,7
-3.74616e-02,26,25.6,3,3
-3.74608e-02,26,26.4,3,7
-3.74600e-02,26,25.6,3,3
-3.74592e-02,26,26.4,5,7
-3.74584e-02,26,25.2,5,3
-3.74576e-02,26,26.4,5,7
-3.74568e-02,26,25.6,3,3
-3.74560e-02,26,26.4,3,7
-3.74552e-02,26,25.6,3,3
-3.74544e-02,26,26.4,5,7
-3.74536e-02,26,25.6,3,3
-3.74528e-02,26,26.4,5,7
-3.74520e-02,26,25.6,5,3
-3.74512e-02,26,26.4,3,7
-3.74504e-02,26,25.6,3,3
-3.74496e-02,26,26.4,3,7
-3.74488e-02,26,25.6,3,3
-3.74480e-02,26,26.4,3,7
-3.74472e-02,26,25.6,5,3
-3.74464e-02,26,26.4,5,7
-3.74456e-02,26,25.6,3,3
-3.74448e-02,26,26.4,3,7
-3.74440e-02,26,25.6,3,3
-3.74432e-02,26,26.4,5,7
-3.74424e-02,26,25.2,5,3
-3.74416e-02,26,26.8,5,7
-3.74408e-02,26,25.6,3,3
-3.74400e-02,26,26.4,5,7
-3.74392e-02,26,25.6,3,3
-3.74384e-02,26,26.4,3,7
-3.74376e-02,26,25.6,5,3
-3.74368e-02,26,26.4,3,7
-3.74360e-02,26,25.6,3,3
-3.74352e-02,26,26.4,3,7
-3.74344e-02,26,25.6,3,3
-3.74336e-02,26,26.4,3,7
-3.74328e-02,26,25.6,3,3
-3.74320e-02,26,26.4,3,7
-3.74312e-02,26,25.6,3,3
-3.74304e-02,26,26.4,5,7
-3.74296e-02,26,25.6,5,3
-3.74288e-02,26,26.4,5,7
-3.74280e-02,26,25.6,5,3
-3.74272e-02,26,26.4,5,7
-3.74264e-02,26,25.6,3,3
-3.74256e-02,26,26.4,3,7
-3.74248e-02,26,25.6,5,3
-3.74240e-02,26,26.8,3,7
-3.74232e-02,26,25.6,3,3
-3.74224e-02,26,26.4,3,7
-3.74216e-02,26,25.6,5,3
-3.74208e-02,26,26.4,3,7
-3.74200e-02,26,25.6,5,3
-3.74192e-02,26,26.4,3,7
-3.74184e-02,26,25.6,5,3
-3.74176e-02,26,26.4,3,7
-3.74168e-02,26,25.6,5,3
-3.74160e-02,26,26.4,5,7
-3.74152e-02,26,25.6,5,3
-3.74144e-02,26,26.4,5,7
-3.74136e-02,26,25.2,5,3
-3.74128e-02,26,27.2,5,7
-3.74120e-02,26,25.6,5,3
-3.74112e-02,26,26.4,5,7
-3.74104e-02,26.4,25.6,5,3
-3.74096e-02,26.4,26.8,5,7
-3.74088e-02,26,25.6,5,3
-3.74080e-02,26.4,26.8,5,7
-3.74072e-02,26.4,25.6,5,3
-3.74064e-02,26.4,26.8,5,7
-3.74056e-02,26,25.6,5,3
-3.74048e-02,26.4,26.8,3,7
-3.74040e-02,26,25.2,5,3
-3.74032e-02,26,26.8,5,7
-3.74024e-02,26,25.2,3,3
-3.74016e-02,26,26.8,5,7
-3.74008e-02,26,25.6,3,3
-3.74000e-02,26,26.8,5,7
-3.73992e-02,26,25.6,5,3
-3.73984e-02,26,26.8,5,7
-3.73976e-02,26,25.6,5,3
-3.73968e-02,26,26.4,3,7
-3.73960e-02,26,25.6,3,3
-3.73952e-02,26,26.8,5,7
-3.73944e-02,26,26,5,3
-3.73936e-02,26,26.4,5,7
-3.73928e-02,26,25.6,5,3
-3.73920e-02,26,26.8,5,7
-3.73912e-02,26,25.6,5,3
-3.73904e-02,26,26.4,5,7
-3.73896e-02,26.4,25.6,5,3
-3.73888e-02,26.4,26.4,5,7
-3.73880e-02,26,26,5,3
-3.73872e-02,26,26.4,5,7
-3.73864e-02,26.4,25.6,3,3
-3.73856e-02,26.4,26.4,5,7
-3.73848e-02,26.4,26,5,3
-3.73840e-02,26.4,26.4,5,7
-3.73832e-02,26,26,5,3
-3.73824e-02,26.4,26.4,5,7
-3.73816e-02,26.4,26,5,3
-3.73808e-02,26,26.4,5,7
-3.73800e-02,26,26,5,3
-3.73792e-02,26,26.4,5,7
-3.73784e-02,26,26,5,3
-3.73776e-02,26.4,26.4,5,7
-3.73768e-02,26.4,26,3,3
-3.73760e-02,26,26.8,5,7
-3.73752e-02,26.4,25.6,5,3
-3.73744e-02,26,26.8,5,7
-3.73736e-02,26,25.6,5,3
-3.73728e-02,26.4,26.4,5,7
-3.73720e-02,26.4,25.6,5,3
-3.73712e-02,26,26.4,5,7
-3.73704e-02,26,25.6,5,3
-3.73696e-02,26,26.4,5,7
-3.73688e-02,26,25.6,5,3
-3.73680e-02,26,26.4,5,7
-3.73672e-02,26.4,26,5,3
-3.73664e-02,26.4,26.4,5,7
-3.73656e-02,26,25.6,5,3
-3.73648e-02,26,26.4,3,7
-3.73640e-02,26,25.6,5,3
-3.73632e-02,26.4,26.4,5,7
-3.73624e-02,26.4,26,5,3
-3.73616e-02,26.4,26.4,5,7
-3.73608e-02,26,26,5,3
-3.73600e-02,26,26.4,5,7
-3.73592e-02,26.4,25.6,5,3
-3.73584e-02,26,26.8,5,7
-3.73576e-02,26,26,5,3
-3.73568e-02,26.4,26.4,5,7
-3.73560e-02,26,26,5,3
-3.73552e-02,26,26.4,3,7
-3.73544e-02,26,26,5,3
-3.73536e-02,26.4,26.4,5,7
-3.73528e-02,26,26,5,3
-3.73520e-02,26,26.4,5,7
-3.73512e-02,26.4,26,5,3
-3.73504e-02,26,26.4,5,7
-3.73496e-02,26.4,26,5,3
-3.73488e-02,26,26.4,5,7
-3.73480e-02,26.4,26,5,3
-3.73472e-02,26,26.4,5,7
-3.73464e-02,26,26,5,3
-3.73456e-02,26,26.4,5,7
-3.73448e-02,26,26,5,3
-3.73440e-02,26,26.4,5,7
-3.73432e-02,26,25.6,5,3
-3.73424e-02,26,26.8,5,7
-3.73416e-02,26.4,25.6,5,3
-3.73408e-02,26.4,26.8,5,7
-3.73400e-02,26.4,25.6,5,3
-3.73392e-02,26,26.8,5,7
-3.73384e-02,26,25.6,5,3
-3.73376e-02,26.4,26.8,5,7
-3.73368e-02,26.4,25.6,5,3
-3.73360e-02,26.4,26.8,5,7
-3.73352e-02,26.4,25.6,5,5
-3.73344e-02,26.4,27.2,5,7
-3.73336e-02,26.4,25.6,5,3
-3.73328e-02,26,27.2,5,7
-3.73320e-02,26.4,25.6,5,3
-3.73312e-02,26.4,26.8,5,7
-3.73304e-02,26.4,25.6,5,3
-3.73296e-02,26,26.8,7,7
-3.73288e-02,26.4,26,5,5
-3.73280e-02,26,26.8,5,7
-3.73272e-02,26.4,25.6,5,5
-3.73264e-02,26.4,26.8,5,7
-3.73256e-02,26.4,26,5,3
-3.73248e-02,26.4,26.8,5,7
-3.73240e-02,26.4,26,5,5
-3.73232e-02,26.4,26.4,5,7
-3.73224e-02,26,26,5,5
-3.73216e-02,26.4,26.8,5,7
-3.73208e-02,26.4,26,5,5
-3.73200e-02,26.4,26.4,5,7
-3.73192e-02,26.4,26,5,5
-3.73184e-02,26.4,26.8,5,7
-3.73176e-02,26.4,26,5,5
-3.73168e-02,26.4,26.4,5,7
-3.73160e-02,26.4,26,5,5
-3.73152e-02,26.4,26.4,5,7
-3.73144e-02,26,26,5,5
-3.73136e-02,26.4,26.8,5,9
-3.73128e-02,26.4,26,5,5
-3.73120e-02,26,26.8,7,7
-3.73112e-02,26,26,7,3
-3.73104e-02,26.4,26.4,5,7
-3.73096e-02,26.4,25.6,5,5
-3.73088e-02,26,26.8,5,9
-3.73080e-02,26.4,26,5,5
-3.73072e-02,26.4,26.4,5,7
-3.73064e-02,26.4,26,5,5
-3.73056e-02,26.4,26.4,5,9
-3.73048e-02,26.4,26,5,5
-3.73040e-02,26.4,26.8,5,7
-3.73032e-02,26.4,26,5,5
-3.73024e-02,26.4,26.8,7,9
-3.73016e-02,26.4,26,7,5
-3.73008e-02,26.4,26.8,5,9
-3.73000e-02,26.4,26,5,5
-3.72992e-02,26.4,26.8,5,7
-3.72984e-02,26.4,26,5,5
-3.72976e-02,26.4,26.4,5,7
-3.72968e-02,26.4,26,5,5
-3.72960e-02,26.4,26.8,7,9
-3.72952e-02,26.8,26,5,5
-3.72944e-02,26.4,26.8,5,9
-3.72936e-02,26.4,25.6,5,3
-3.72928e-02,26.4,26.8,5,9
-3.72920e-02,26.4,26,5,5
-3.72912e-02,26.4,26.8,5,9
-3.72904e-02,26.4,26,5,5
-3.72896e-02,26.4,26.8,5,9
-3.72888e-02,26.4,26,5,5
-3.72880e-02,26.4,26.8,5,9
-3.72872e-02,26.4,26,7,5
-3.72864e-02,26.4,26.8,5,9
-3.72856e-02,26.4,26,5,5
-3.72848e-02,26.4,26.8,7,9
-3.72840e-02,26.4,26,5,5
-3.72832e-02,26.4,26.8,5,9
-3.72824e-02,26.4,26,5,5
-3.72816e-02,26.4,26.8,5,9
-3.72808e-02,26.4,26,7,5
-3.72800e-02,26.4,26.8,5,9
-3.72792e-02,26.4,26,5,5
-3.72784e-02,26.4,26.8,7,9
-3.72776e-02,26.4,25.6,5,5
-3.72768e-02,26.4,27.2,5,9
-3.72760e-02,26.4,26,5,5
-3.72752e-02,26.4,26.8,7,9
-3.72744e-02,26.4,26,7,5
-3.72736e-02,26.4,26.8,7,9
-3.72728e-02,26.4,26,5,5
-3.72720e-02,26.4,26.8,7,9
-3.72712e-02,26.4,26,5,5
-3.72704e-02,26.4,26.8,5,9
-3.72696e-02,26,25.6,5,5
-3.72688e-02,26.4,27.2,7,9
-3.72680e-02,26.4,26,7,5
-3.72672e-02,26.4,26.4,5,9
-3.72664e-02,26,25.6,7,5
-3.72656e-02,26.4,27.2,5,9
-3.72648e-02,26.4,25.6,7,5
-3.72640e-02,26.4,27.2,5,9
-3.72632e-02,26.4,25.6,5,5
-3.72624e-02,26.4,26.8,5,9
-3.72616e-02,26.4,25.6,5,5
-3.72608e-02,26,27.2,7,9
-3.72600e-02,26.4,25.6,5,5
-3.72592e-02,26.4,27.2,5,9
-3.72584e-02,26.4,25.6,7,5
-3.72576e-02,26.4,26.8,7,9
-3.72568e-02,26.4,25.6,7,5
-3.72560e-02,26.4,26.8,7,9
-3.72552e-02,26.4,25.6,5,5
-3.72544e-02,26.4,26.8,7,9
-3.72536e-02,26.4,26,5,5
-3.72528e-02,26.4,26.8,5,9
